"Track URI","Track Name","Artist URI","Artist Name","Album URI","Album Name","Disc Number","Track Number","Track Duration (ms)","Added By","Added At"
"spotify:track:041dQLFh2Flg5Vcx1CXije","Afterburner - In Orbit","spotify:artist:7wgk3SCEBmyy6Bd6sg638C","Maluns","spotify:album:4TvjWoQQ9r25KKdK2U4dTy","Afterburner Trilogy","1","3","388203","spotify:user:klevstul","2017-07-27T08:05:41Z"
"spotify:track:1zMt7mN6YlTOtZkDQtxNsL","Afterlife - original","spotify:artist:0rUF37qYEDW2JQIgRQJ9tR","Lung","spotify:album:79EqdmQDXVBp1nkksZlpnt","Afterlife / Time","1","1","386573","spotify:user:klevstul","2017-07-27T08:12:03Z"
"spotify:track:4bd1JH0ZYIBKGjQr2NVA9b","Road to Conciousness (Mr. Bill Remix)","spotify:artist:1xtbbsmwuI3jil5rAEK5Mk, spotify:artist:5JJclMMPi2YgEKjJY9AjbB","Alice SpaceDoll, Mr. Bill","spotify:album:56XdOzj7nqVJyQJNm7Xx2b","Alice Spacedoll Remixed","1","4","264738","spotify:user:klevstul","2017-07-27T08:28:32Z"
"spotify:track:0xg6tZOrRw2f8RKtVg6aSr","Unknown","spotify:artist:37cUr70U6qVVqoBwWsD0rg","Saschienne","spotify:album:1qwZQ8GsUZSqca0O1VXpJY","Amnesia Ibiza Electrónica (Mixed By Mar-t)","2","8","411962","spotify:user:klevstul","2017-07-27T08:36:45Z"
"spotify:track:46LbeMks1z8Hm9CE8UUp2p","Anamnisi","spotify:artist:7sF8RuNYCpGngojCFcHAv4","Side Liner","spotify:album:7cL84oDnSpBsu4omQ0MgOE","Anamnisi","1","1","330280","spotify:user:klevstul","2017-07-27T08:48:13Z"
"spotify:track:5sQbFhORzGU7dfCZGkNHZ3","Be The First - Original","spotify:artist:0BP8ipQ8NyUiE55FDec2RJ","Hankat","spotify:album:2CtxuNCyhNdeAlv3o5kBBU","Be The First","1","2","406053","spotify:user:klevstul","2017-07-27T08:55:01Z"
"spotify:track:20bNRgJ7cf3UNtE9D7RvuI","Bella","spotify:artist:3Ckt7DNBcLi93B2LGyKYzy","Finnebassen","spotify:album:33OdwYP9wnoZgIfa6YqExQ","Bella","1","1","458181","spotify:user:klevstul","2017-07-27T08:55:07Z"
"spotify:track:7ra6zhNtaHnUEhiioINDBc","Star in a Cage","spotify:artist:1PlbrDB4NRk1rhV9NJhcwJ, spotify:artist:1YzhPssoLV65PIChO3Uri9","Nordlight, Day Din","spotify:album:1x8ufCjnuBzmCSS7UCK48Q","Breaking Dread","1","3","246724","spotify:user:klevstul","2017-07-27T08:56:54Z"
"spotify:track:0HIuHBTfwIYVy0Rpk1P9Ui","Lost in Darkness","spotify:artist:5IZcbzR50KaUON1EmU9gJT","Trazer","spotify:album:1inuj6k2m9sRoZKo5XWBZh","Burning","1","3","315428","spotify:user:klevstul","2017-07-27T09:09:15Z"
"spotify:track:64wCojIeyUZJBtUXktkbIH","Town Joker (Original Mix)","spotify:artist:1IGl1k7lAgsIhTJaR8Vnrc, spotify:artist:6zsJjoCtL1WByG0VsuFWzR","Climbers, Blond:ish","spotify:album:4bbbbmjxWxRi6JbYKjWmZC","Bushido Geisha","1","5","399493","spotify:user:klevstul","2017-07-27T09:09:15Z"
"spotify:track:5czAs5NqgjG1ZZttyQKG1L","Can't Sleep","spotify:artist:23LqlHZ1oiZIXBds7uq7F9, spotify:artist:019zha1hO8JdEYb87pY4Ys","Kryptic Minds, Alys B","spotify:album:5lehb0FwxaNtIpBpCUSEcw","Can't Sleep","1","6","341226","spotify:user:klevstul","2017-07-27T09:15:26Z"
"spotify:track:4WRGJjfRgCRQSWy4xFtbuY","Caraboo","spotify:artist:0yyaMSLZPLTbtS2ifp0HTq","Ishome","spotify:album:1nBiUd4quUm5L02iyss9o8","Caraboo","1","1","436170","spotify:user:klevstul","2017-07-27T09:23:46Z"
"spotify:track:1SxfG1ItylqXuBCTD69I11","Mist","spotify:artist:0yyaMSLZPLTbtS2ifp0HTq","Ishome","spotify:album:1nBiUd4quUm5L02iyss9o8","Caraboo","1","3","384726","spotify:user:klevstul","2017-07-27T09:23:51Z"
"spotify:track:5TvfXpzlZrcX576kGvJNw4","Anagram","spotify:artist:2swFdvkby5pFs0L1hiRiCA","Dousk","spotify:album:1TAPrNlppMepUN9Ih6meOw","The Chillout Lounge","1","2","264426","spotify:user:klevstul","2017-07-27T09:38:15Z"
"spotify:track:2KA771ZeeImeyTQlyyVm47","Adam","spotify:artist:0yyaMSLZPLTbtS2ifp0HTq","Ishome","spotify:album:4ebXOGfZPHnKcZNqGb4qXf","Confession","1","2","250682","spotify:user:klevstul","2017-07-27T10:12:18Z"
"spotify:track:4nLFCp1VkmMd8UzxH0eA5A","Wildness","spotify:artist:0yyaMSLZPLTbtS2ifp0HTq","Ishome","spotify:album:4ebXOGfZPHnKcZNqGb4qXf","Confession","1","4","285048","spotify:user:klevstul","2017-07-27T10:12:18Z"
"spotify:track:63JMFxJzbdORzLjTdZpNUC","Tetra 94, Pt. 2","spotify:artist:0yyaMSLZPLTbtS2ifp0HTq","Ishome","spotify:album:4ebXOGfZPHnKcZNqGb4qXf","Confession","1","6","300466","spotify:user:klevstul","2017-07-27T10:12:18Z"
"spotify:track:5uAqgA5WyUveel8LqY0jtO","Ken Tavr","spotify:artist:0yyaMSLZPLTbtS2ifp0HTq","Ishome","spotify:album:4ebXOGfZPHnKcZNqGb4qXf","Confession","1","8","307896","spotify:user:klevstul","2017-07-27T10:12:18Z"
"spotify:track:4mBWPW3MRX77JJCiKvmyIq","Earth","spotify:artist:0yyaMSLZPLTbtS2ifp0HTq","Ishome","spotify:album:4ebXOGfZPHnKcZNqGb4qXf","Confession","1","9","336224","spotify:user:klevstul","2017-07-27T10:12:18Z"
"spotify:track:3gs1t3JXI1vSDl9MEZfaVO","Tripping In The 16th","spotify:artist:2bP72uOaVvJ2syINURI42n","Martin Buttrich","spotify:album:6vOOK2LSuBTZHxyEXQFJx1","Crash Test","1","1","250492","spotify:user:klevstul","2017-07-27T10:17:59Z"
"spotify:track:1m85PpnCEa9EaU2z6lGwmO","A1","spotify:artist:2933wDUojoQmvqSdTAE5NB","DARKSIDE","spotify:album:6Qed8BUGl1AZSRsBbFEC54","Darkside","1","1","358608","spotify:user:klevstul","2017-07-27T12:07:21Z"
"spotify:track:3wRnIOYXNVW7CwaapsjPak","A2","spotify:artist:2933wDUojoQmvqSdTAE5NB","DARKSIDE","spotify:album:6Qed8BUGl1AZSRsBbFEC54","Darkside","1","2","286394","spotify:user:klevstul","2017-07-27T12:07:21Z"
"spotify:track:3fNxE3Hg47056GbOjZ58uu","Nocturne","spotify:artist:0OP3N0P99vQkUHdEzCF3RH","Inofaith","spotify:album:7iWYIUCofowQcejuyzLJVy","Dawn is Late","1","4","432000","spotify:user:klevstul","2017-07-27T12:11:22Z"
"spotify:track:42EkEzsuAbiF3F9s3Q1CGJ","Together - Original Mix","spotify:artist:0D5TMUOaeOTnYlSntTxL8k","Ovia","spotify:album:3pFEx2z6wTKzXTzfms7bJP","Days Of Wonder","1","1","230282","spotify:user:klevstul","2017-07-27T12:17:01Z"
"spotify:track:0PsU4GmoycK6sNmBorYvOt","Days Of Wonder - Original Mix","spotify:artist:0D5TMUOaeOTnYlSntTxL8k","Ovia","spotify:album:3pFEx2z6wTKzXTzfms7bJP","Days Of Wonder","1","2","262976","spotify:user:klevstul","2017-07-27T12:23:07Z"
"spotify:track:3dE4fE9lDSRTbSzV7mRHDb","Ummah Oum (feat. Shahin Badar) - 100th Monkey Remix","spotify:artist:4TFmgYfhLJxF6nL8WDSnWV, spotify:artist:5wV3VcHY2HltBOIMQEhRzc","Kaya Project, Shahin Badar","spotify:album:0UC4qzRTLA21JBQXDXK2Vr","Desert Phase Remixes","1","2","354706","spotify:user:klevstul","2017-07-27T12:33:48Z"
"spotify:track:6MUe6uING1DuNEypz2Of0f","23 Towers - Eat Static Remix","spotify:artist:4TFmgYfhLJxF6nL8WDSnWV","Kaya Project","spotify:album:0UC4qzRTLA21JBQXDXK2Vr","Desert Phase Remixes","1","4","462480","spotify:user:klevstul","2017-07-27T12:33:48Z"
"spotify:track:6Ww9LLFCEPUupx7wy3jZnN","Distant Shores","spotify:artist:4mA7iTQqDHoKkuLWJ6Oyn6","Petar Dundov","spotify:album:4o7ny29cHk2OmrDWlBKbQb","Distant Shores","1","1","752593","spotify:user:klevstul","2017-07-27T12:37:39Z"
"spotify:track:1Cy4bRdq07fA2PAzs52nO1","Karoo - Original","spotify:artist:44VYaq2KjuU7hFvtD4Darm","Larse","spotify:album:58fXpGz1B43HMFg2snKtU8","DJ-Kicks (Maya Jane Coles)","1","5","251866","spotify:user:klevstul","2017-07-27T12:51:52Z"
"spotify:track:1DGT0JhmPofwAkIVQrE1pg","Procession","spotify:artist:3kPg66BIQ7Bj7pLxxiBHN4","Wicked Beat Souynd System","spotify:album:60OKxxQ9Mu916bnfRu2pX7","Dreaming","1","2","536586","spotify:user:klevstul","2017-07-27T12:51:52Z"
"spotify:track:1sWucAynpw5cUs3ZzB9gMg","Desert Journey","spotify:artist:2uY6n7zcOlm2yugy9ItRW7","Etnica","spotify:album:0UcnCm0Cn6aZ85XtaRXYII","Eclipse 2012 - Following the Eye of God","2","1","479706","spotify:user:klevstul","2017-07-27T17:11:26Z"
"spotify:track:4vkWsHZsEtJch74xWkxSib","Eva - Original Mix","spotify:artist:0yyaMSLZPLTbtS2ifp0HTq","Ishome","spotify:album:7mapkE8m2cbcdqjmD1ItXV","Eva","1","1","365147","spotify:user:klevstul","2017-07-27T17:37:20Z"
"spotify:track:3RLYmGWrMfu9hal0QyXpe1","7700M - Original Mix","spotify:artist:0yyaMSLZPLTbtS2ifp0HTq","Ishome","spotify:album:7mapkE8m2cbcdqjmD1ItXV","Eva","1","3","412198","spotify:user:klevstul","2017-07-27T17:53:18Z"
"spotify:track:5G2zu150sf9sLmup3yDw27","16mm Summer Day","spotify:artist:1F102kNzMqsmOpF7AfFmm5","Ott","spotify:album:5hmn7o6Q9JEYNvQv7xEJm2","Fairchildren","1","2","436173","spotify:user:klevstul","2017-07-27T18:18:48Z"
"spotify:track:0wI26iVSbcYBZ82kXAQ810","Woohoo","spotify:artist:3qoTlYFOahAlAh9ee3qnbs, spotify:artist:3cduU2huZ18pS50V7tic61","HOSH, Ost & Kjex","spotify:album:7y7u0itEE7poH2CTrxLoGy","Faze #08: H.O.S.H.","1","3","456105","spotify:user:klevstul","2017-07-27T18:27:55Z"
"spotify:track:3lOZTrcnAQ7g4VSULw0kRg","MAN O TO - mixed","spotify:artist:2yN2Zdj38v2IYQdosx0cPj","NU","spotify:album:0N2q7V1yST9X68fWM9lBOQ","Get Lost V mixed by Acid Pauli","1","2","565200","spotify:user:klevstul","2017-07-27T19:13:52Z"
"spotify:track:1IRqSkxHLv0QJTBhJdpWIf","Stilhed (med Frida Hilarius)","spotify:artist:0qdhFzhTUnvl4DP4rJSGTh","Mike Sheridan","spotify:album:3HbiLkqTBsuFMDWnKha0NG","I Syv Sind","1","4","433493","spotify:user:klevstul","2017-07-27T19:20:22Z"
"spotify:track:7J7cNv9fl9nbofKMpPng4J","You're so High","spotify:artist:5CkVLGKUJkIc1pmSk10QP4","Eli & Fur","spotify:album:5fF4GeXKiNGjgFkxoxlyHa","Illusions","1","1","325497","spotify:user:klevstul","2017-07-27T19:31:02Z"
"spotify:track:1N4WSIn3bNGdQ9b1NtHeCO","Twilight","spotify:artist:2wKQobSEiYRbKx3boNrrLf","M-Seven","spotify:album:3cUj4bpFDdwJ4QkX0xCy2u","Imaginary Being","1","3","278314","spotify:user:klevstul","2017-07-27T19:37:15Z"
"spotify:track:444N0NdLyFZ26UjisN6pnr","Shift","spotify:artist:2wKQobSEiYRbKx3boNrrLf","M-Seven","spotify:album:3cUj4bpFDdwJ4QkX0xCy2u","Imaginary Being","1","6","261365","spotify:user:klevstul","2017-07-27T19:39:26Z"
"spotify:track:0SNeYbHaGbcBnXgwFDEVM7","Langbortistan","spotify:artist:7HPB7nqnx5kx1wIhFiHZ3M","Lauge & Baba Gnohm","spotify:album:61hCXkJU7kzqiGV7hBg51e","Langbortistan","1","1","631177","spotify:user:klevstul","2017-07-27T19:56:52Z"
"spotify:track:0ehilxCgt1DzTBW0AbHSk7","H2O","spotify:artist:7HPB7nqnx5kx1wIhFiHZ3M","Lauge & Baba Gnohm","spotify:album:61hCXkJU7kzqiGV7hBg51e","Langbortistan","1","3","528765","spotify:user:klevstul","2017-07-27T20:17:46Z"
"spotify:track:1UmLoPCg5kLMm3ROuHrZey","Left (feat. Fabian Reichelt)","spotify:artist:7tL5UmgvPx6TqKyf0Sjjw6","Marek Hemmann","spotify:album:40eZwxxY4UYgjRW4mZTApc","Left / Right EP","1","1","478182","spotify:user:klevstul","2017-07-27T20:17:46Z"
"spotify:track:4TpGIvAc4fodCBd6vpdJfT","Life Flows","spotify:artist:2nYWhMzt3fDNNW0cwPIw7V","Eguana","spotify:album:70oa8OEShuxDIMHaLjMxvK","Life Flows","1","4","588007","spotify:user:klevstul","2017-07-27T20:27:06Z"
"spotify:track:6OEf8tuMnohEIUmb7TWJEB","Don't Kill It","spotify:artist:25npC4PaNKsRH44sFPR057, spotify:artist:0GP4LNLCk8Q07YDThkDPdT","Waterjuice, Blane Lyon","spotify:album:5aDbw1B4MnjnjAQDlWsItg","Liquid Journeys","1","2","352803","spotify:user:klevstul","2017-07-27T20:34:06Z"
"spotify:track:4IkrGCQNSp75vqHeubGNN6","Bells","spotify:artist:25npC4PaNKsRH44sFPR057","Waterjuice","spotify:album:5aDbw1B4MnjnjAQDlWsItg","Liquid Journeys","1","8","357355","spotify:user:klevstul","2017-07-27T20:36:17Z"
"spotify:track:74L6ErkVTEmfdQU3pH3FHl","Asian Woman - live edit","spotify:artist:4dOyKMeKD8DPTC2qn0bwk7","Hol Baumann","spotify:album:5SW2pnDexNk62DIoJt1mxT","Live at Sonic - 10.05.06","1","4","329891","spotify:user:klevstul","2017-07-27T20:45:33Z"
"spotify:track:5lqKHdevW2ITKZI0kOCynV","La vie est belle - Marek Hemmann Remix","spotify:artist:0LtDMZWibqA2ET2EG6ny0K","Pupkulies & Rebecca","spotify:album:3DnRlYLMY7VxOLnZziuJlL","Looking for the Sea in Remix Pt. I","1","1","465533","spotify:user:klevstul","2017-07-27T20:45:33Z"
"spotify:track:1Cv2OxsAoAZqXzM673mWAG","W","spotify:artist:7E3BRXV9ZbCt5lQTCXMTia, spotify:artist:5gqhueRUZEa7VDnQt4HODp","Ólafur Arnalds, Nils Frahm","spotify:album:5sMONoPiUFL0vTFUd3m6ny","Loon","1","4","402275","spotify:user:klevstul","2017-07-27T21:06:13Z"
"spotify:track:3ShFoNEjHXDpGEWDdrwVTy","The Stones are not too busy","spotify:artist:7GyhmlEy51sGUE09A5AWzc","Solar Fields","spotify:album:4nICR7VmmfEp78mfcZ4WUC","Movements","1","5","629203","spotify:user:klevstul","2017-07-27T21:39:56Z"
"spotify:track:1ZFXZajRMHPpV6LlVF3OSx","Stellar Flares","spotify:artist:51fZX95GBVZJ7wHlDuGYxZ","Cosmic Replicant","spotify:album:502Ug7qO87s82qrCuEXijg","Mission Infinity","1","9","480052","spotify:user:klevstul","2017-07-27T21:40:09Z"
"spotify:track:7IutiKPWKie0KbiYXbMrpL","Flikr Of Ur Eyes","spotify:artist:7hdSdrASlEmWdvbUShNzDq","Swarms","spotify:album:4vRy4ZbJK8U0kVImLmaRbj","Old Raves End","1","3","304533","spotify:user:klevstul","2017-07-28T08:51:24Z"
"spotify:track:6zHjcsZzOMUYLgeIUaQoZe","Who Am I","spotify:artist:1h5fdExX00l0ujyhHMwFHt","Peace Orchestra","spotify:album:4ZBg1gzwZTwmazOcSHkaNi","Peace Orchestra","1","7","357826","spotify:user:klevstul","2017-07-28T09:03:26Z"
"spotify:track:0ikhyMXGBKSx8Yb18h7prS","Imprint of Pleasure","spotify:artist:32wcuqRxZuBY5HbH1bWa8h","Tube & Berger","spotify:album:5yr4Rq5rmmafQApx0WvxY7","Pleasure Dip","1","2","442627","spotify:user:klevstul","2017-07-28T09:12:01Z"
"spotify:track:6rqONVHOT73QecUdJ5HVHy","Paper Trails","spotify:artist:2933wDUojoQmvqSdTAE5NB","DARKSIDE","spotify:album:7jqNrm1l4wSxNYSjgK7tmF","Psychic","1","4","289840","spotify:user:klevstul","2017-07-28T09:12:09Z"
"spotify:track:6qt0nHVxcK2hLFNgY17woU","Bermuda","spotify:artist:2YzUXecwzcOdlJsnpnJfkJ","Fluke","spotify:album:5ezexvsCxjT0pEjmxF5waj","Risotto","1","5","477226","spotify:user:klevstul","2017-07-28T09:31:46Z"
"spotify:track:0EpsfQ0JqDJZY5uyklXMKL","Góða tungl","spotify:artist:1Xl5hsislt88ijOD3EZsOY","Samaris","spotify:album:0dORgDqAGJj0WKVkfba1h6","Samaris","1","3","250666","spotify:user:klevstul","2017-07-28T09:48:43Z"
"spotify:track:49ddrP82y7rWEjy0ElknGC","Same Kind","spotify:artist:6q8R4RVlc4DZ1XElNLj6Ag, spotify:artist:43CV1MCnOVhNzJ3cXXJnk9","Congi, Occult","spotify:album:5HRwcrQvo56NZ910BVaY3O","Same Kind","1","1","347519","spotify:user:klevstul","2017-07-28T09:54:37Z"
"spotify:track:0ZXgnRAifhGMzwaZyP6nqM","Autumn Leaves","spotify:artist:6q8R4RVlc4DZ1XElNLj6Ag, spotify:artist:43CV1MCnOVhNzJ3cXXJnk9","Congi, Occult","spotify:album:5HRwcrQvo56NZ910BVaY3O","Same Kind","1","5","326362","spotify:user:klevstul","2017-07-28T12:32:06Z"
"spotify:track:0t87eg77O7ZamZlmwTgqf1","The More I Want - Eivissa Edit","spotify:artist:44VYaq2KjuU7hFvtD4Darm","Larse","spotify:album:2D1GeQ4l4WkASjKHVe7Ec1","Second Chances & New Romances (Volume 1)","1","2","403144","spotify:user:klevstul","2017-07-28T12:38:14Z"
"spotify:track:0AVzhaaOaGgdyXJ2orgfwC","Obedear","spotify:artist:1TtJ8j22Roc24e2Jx3OcU4","Purity Ring","spotify:album:7ppypgQppMf3mkRbZxYIFM","Shrines","1","9","209573","spotify:user:klevstul","2017-07-28T12:41:26Z"
"spotify:track:7AeLjNTI0MkJA1Ap5RHBYB","Sign Me Out (Klartraum Remix)","spotify:artist:5nCR6L56rJtT8Us0CuYQmv, spotify:artist:1Y1kUGNpKflBavywihLGgV","Lulu Rouge, Fanney Osk","spotify:album:1A7YnAskhbm1TActFiDpy7","Sign Me Out - Remixes","1","2","486990","spotify:user:klevstul","2017-07-28T12:46:50Z"
"spotify:track:5YKvnB0QFRarJ4ZMnD7fHr","Silent Shout","spotify:artist:7eQZTqEMozBcuSubfu52i4","The Knife","spotify:album:0vxvtqurvPXw7s0OVtavMf","Silent Shout","1","1","293640","spotify:user:klevstul","2017-07-28T12:49:38Z"
"spotify:track:0kF0tmb26vJgE01iuI3tal","Tíbrá","spotify:artist:1Xl5hsislt88ijOD3EZsOY","Samaris","spotify:album:4C3qmo6TdJa45wYZyL8KTu","Silkidrangar","1","4","240200","spotify:user:klevstul","2017-07-28T12:59:08Z"
"spotify:track:5CYUYTl83LelKFL3ahw6Qf","Brennur Stjarna","spotify:artist:1Xl5hsislt88ijOD3EZsOY","Samaris","spotify:album:4C3qmo6TdJa45wYZyL8KTu","Silkidrangar","1","5","355373","spotify:user:klevstul","2017-07-28T13:05:20Z"
"spotify:track:13q99958MEH4BqLyhMC8w1","Skim - Original Mix","spotify:artist:0qe1oJF2LSuilJXbEhUlmT, spotify:artist:3Z8221k9q4oLkXUEuizRJP","Jess Chambers, Isaac Chambers","spotify:album:3ST5ZbhTZ1OEB6hJtVAQ5B","Skim","1","1","442434","spotify:user:klevstul","2017-07-28T13:20:12Z"
"spotify:track:3jSxkMeKZdSgyiUC6LGbSt","Skywolf","spotify:artist:6wrxnVEKGHyp5RZc468eoN","Kyoto","spotify:album:0vgr4t267jn4hadnaJX7Qy","Skywolf","1","5","703036","spotify:user:klevstul","2017-07-28T13:20:56Z"
"spotify:track:0NUArejLh04xSVgBWaMY8V","Slow Emotion - Original Mix","spotify:artist:1Yoh16hIaFA2yVFPcbT0hZ","Unclown Despair","spotify:album:4T0aZt4VArTN7ZW8GXcRU6","Slow Emotion","1","4","251850","spotify:user:klevstul","2017-07-28T13:42:59Z"
"spotify:track:6UUOkhXDWTqVYjzqNJ1F0x","So High","spotify:artist:4fQHCuys7JZvaQzRvB1kPR","Ghost Loft","spotify:album:4o4SfH08cmiHk2aRlTcPqj","So High","1","1","187992","spotify:user:klevstul","2017-07-28T13:47:20Z"
"spotify:track:1fhx5gN0goga0lYXhQvCll","Distant Worlds","spotify:artist:2z658O7sY52T18CIOqUcws","AstroPilot","spotify:album:4Nj9TNTvde0PMOOeOAfjIG","Solar Walk 3: Event Horizon","1","5","452000","spotify:user:klevstul","2017-07-28T19:35:23Z"
"spotify:track:698wIOlqqaBbffIDkFxO0f","Raining Again","spotify:artist:48aaubPa3RsbAp4uCPhoS7","Betoko","spotify:album:5kyPC8VFCfIcrrPcxpFtia","Sound of Berlin 14 - The Finest Club Sounds Selection of House, Electro, Minimal and Techno","1","15","488269","spotify:user:klevstul","2017-07-28T19:35:23Z"
"spotify:track:2HFSOkGetw3wk7mlPh9By7","Reflected","spotify:artist:1YzhPssoLV65PIChO3Uri9","Day Din","spotify:album:7oVdm1GRc1InC6jW4VgyN5","Speakers Corner","1","11","478812","spotify:user:klevstul","2017-07-28T19:42:54Z"
"spotify:track:2OUzckxKTwBs0rX6P4j8S1","A5sention","spotify:artist:7JkG9VdDyNeVcD9W5b3HB7","Electrypnose","spotify:album:2oWmRPdu9M4EVzjSoPlS49","Sweet Sadness","1","1","426994","spotify:user:klevstul","2017-07-28T20:03:30Z"
"spotify:track:18yaWo8lS69O3n52S2AnIq","Sady","spotify:artist:7JkG9VdDyNeVcD9W5b3HB7","Electrypnose","spotify:album:2oWmRPdu9M4EVzjSoPlS49","Sweet Sadness","1","4","512076","spotify:user:klevstul","2017-07-28T20:20:39Z"
"spotify:track:1Mctpm9sBjTVGxraIknQTx","Eyjafjallajokekull","spotify:artist:1PlbrDB4NRk1rhV9NJhcwJ","Nordlight","spotify:album:1bG8D4rSsuiro6G9fPp5fE","Sync Yourself","1","11","371284","spotify:user:klevstul","2017-07-28T20:20:39Z"
"spotify:track:7zvHfrNp03wxHLLOeWlu0Z","The Silence","spotify:artist:3rblB9Pm51uKd9uYPVPB7B, spotify:artist:0o9k6CmDuy07gP28ov82wp","Om Unit, Jinadu","spotify:album:24epPLfOnAslNfiIYDC3Ni","Threads","1","2","291253","spotify:user:klevstul","2017-07-28T20:39:41Z"
"spotify:track:5cc5mlOBBHg080RYPAcZDq","Sacred Communication","spotify:artist:5mloPvVMchlYxCxz9r3NTU","SiebZehn","spotify:album:4Y0QCreAaMMEoBjfljGvFQ","Time Equals Eternity","1","3","694343","spotify:user:klevstul","2017-07-28T21:04:09Z"
"spotify:track:6gQrH3neKcq2bmieQl4KCH","Winter Harmonies","spotify:artist:5mloPvVMchlYxCxz9r3NTU","SiebZehn","spotify:album:4Y0QCreAaMMEoBjfljGvFQ","Time Equals Eternity","1","6","440073","spotify:user:klevstul","2017-07-28T21:33:50Z"
"spotify:track:4Puv4usTokKS3n9wZtohwy","Wapa - Original Mix","spotify:artist:1oP6xp4bo6ZmVJsuMcKdtJ","Canson","spotify:album:2Wg73h2ZnrZnS9VoinlG2v","Under You Good Kuma EP","1","5","369993","spotify:user:klevstul","2017-07-28T22:04:54Z"
"spotify:track:3A2vVw2gb8F8nBtkQpvInb","Show Me How","spotify:artist:3Ckt7DNBcLi93B2LGyKYzy, spotify:artist:3zDfY33dtvFYvlwyRqiMSV","Finnebassen, Natalie Conway","spotify:album:5agSnIFO5SqjT5MUtzfpfK","Underground Fables, Vol. 1","1","1","562758","spotify:user:klevstul","2017-07-28T22:08:06Z"
"spotify:track:6rBjGUMlGYGZ5nzrM6Ftkr","Grand Cru","spotify:artist:37cUr70U6qVVqoBwWsD0rg","Saschienne","spotify:album:4RhYcvUh2VpTi5ojBQmk2t","Unknown","1","4","382837","spotify:user:klevstul","2017-07-28T22:24:53Z"
"spotify:track:6bsumQN2MKtnwEWMuT2a21","Winchme","spotify:artist:2swFdvkby5pFs0L1hiRiCA","Dousk","spotify:album:0VF205KKPEh8qdnCV1vf1g","Winchme","1","1","447402","spotify:user:klevstul","2017-07-28T22:37:59Z"
"spotify:track:6rU0dLXyWbXqti69nrQP4H","Paradise Circus","spotify:artist:6FXMGgJwohJLUSr5nVlf9X, spotify:artist:27LGatz1m8aJ7ZaVVWEphc","Massive Attack, Gui Boratto","spotify:album:1F8y2bg9V9nRoy8zuxo3Jt","Heligoland","1","11","487574","spotify:user:klevstul","2017-08-01T17:41:29Z"
"spotify:track:6NIcU82t5vPNi2ctVVXefP","The Universe","spotify:artist:3gNEIgLeknpwkNViU8WAhg","Oceanvs Orientalis","spotify:album:5e0E5hdjTJA77vmTTtwOiU","Untold / Unknown","1","4","630825","spotify:user:klevstul","2017-08-01T17:41:32Z"
"spotify:track:0s9Y89qlFczWm9ULOzq3rH","Elle et moi (Joakim Remix)","spotify:artist:2Jn5sF2xGG791XWUGZJeaA, spotify:artist:5af6HkEomDP7dKLugVmMmk","Max Berlin, Joakim","spotify:album:17B9ozTouflhyWASXV3kIl","Late Night Tales: Groove Armada","1","2","512013","spotify:user:klevstul","2017-08-01T20:04:01Z"
"spotify:track:6Tllev6fw9tXOodmoAsIZC","Vayu","spotify:artist:7lHiOFpepHokhLTy6PNAL9","Kora (CA)","spotify:album:7bkCjULlGysGT8pfaYQDmp","Fragile","1","1","426556","spotify:user:klevstul","2017-08-01T20:11:26Z"
"spotify:track:1Q8llZhuKOb5oZTpKla4GS","Silver","spotify:artist:2EpNqFMVXOEGaliyKnZzDt","Hunter/Game","spotify:album:2my8RWEyh0XLdnG3NRymqN","Adaptation","1","8","309928","spotify:user:klevstul","2017-08-01T20:14:57Z"
"spotify:track:4Bi0ExSgGmv4Nn1VCxCnW7","The End","spotify:artist:2I4hRNCYkPKJQlkoEZKjYx, spotify:artist:3LHqODf1hGAgZ5LTw1Gf4C","Monolink, Acid Pauli","spotify:album:50QtEBjKVjD42H2Z7HxgUF","The End","1","1","493599","spotify:user:klevstul","2017-08-01T20:28:50Z"
"spotify:track:1XYGVM8TsjeadnoNG4ZKbh","New Morning","spotify:artist:2I4hRNCYkPKJQlkoEZKjYx, spotify:artist:3LHqODf1hGAgZ5LTw1Gf4C","Monolink, Acid Pauli","spotify:album:3GF7Wo03gvx5m7fdB5Szso","The End","1","2","468771","spotify:user:klevstul","2017-08-01T20:41:29Z"
"spotify:track:4gUvXzx3IsuhzeJE2ikb6u","Ayun","spotify:artist:6p31dmLI4jnatyEQmrVPDc, spotify:artist:11i3tISGuOUmWFuXTRNrtD","Mira (Berlin), Christopher Schwarzwälder","spotify:album:2rur21kjTVLvKd4swt6SFG","Ayun EP","1","1","427500","spotify:user:klevstul","2017-08-01T20:41:34Z"
"spotify:track:5gYwFcI49P0ijDDvmpgWS9","Days Without You (Crussen Remix)","spotify:artist:5nri3hyKmKBGAfvjBi0mK0, spotify:artist:5ypc43EslSlIfXCGZaEaRd, spotify:artist:79OTUKSZMGMmmR32RWG2ig","Satori, Miou Amadee, Crussen","spotify:album:7a6GSVOs6qgIGGULllSElu","In Between Worlds (Remixes, Vol. 3)","1","1","643116","spotify:user:klevstul","2017-08-01T21:27:11Z"
"spotify:track:7a4VAIQtmFXeqdWtCsU82m","Ouy Ni Si Tra","spotify:artist:5nri3hyKmKBGAfvjBi0mK0","Satori","spotify:album:6CkVeRHzfkiZJOYS6xyV8V","Into Void","1","2","567954","spotify:user:klevstul","2017-08-01T21:53:12Z"
"spotify:track:1UYIBpvVBi48qHxCtGJgle","Hypnotic Zoom","spotify:artist:2o4W4SoTLzb3ksgfG9UcJm","Zero Cult","spotify:album:2rEPJcsN9eKQ5fb5b7eAYJ","Closer Than Ever","1","2","485575","spotify:user:klevstul","2017-08-01T22:10:47Z"
"spotify:track:6cimfLS3U8WhZrGA9nqArq","Our Game","spotify:artist:6ds1QR84YPoQUF8FPJusMQ","Yaima","spotify:album:2nHxgeDs6kcNAIkAcS0Pd7","Ovo","1","2","313306","spotify:user:klevstul","2017-08-01T22:47:50Z"
"spotify:track:79ZkdfOTnhPbtsODTpxZQ6","Inhale","spotify:artist:1opAxC78bZ54lTc7ERMWGN, spotify:artist:2f6CoLZbIqiMOLURa0rxOd","Xerxes, Aleah","spotify:album:3OY0hwwxDKhqEvBgJfHs5f","Cosmik Chill - Orange","1","1","454506","spotify:user:klevstul","2017-08-01T22:50:40Z"
"spotify:track:2JS1WiTlHkIZv4rOqu2eLn","Hollow Talk - Lulu Rouge's Stella Polaris Remix","spotify:artist:4aXPrNXYJLziXeH7Obkea7, spotify:artist:5nCR6L56rJtT8Us0CuYQmv","Choir Of Young Believers, Lulu Rouge","spotify:album:0mQH5Q4HfxlxisOqQhTLNW","Hollow Talk (Lulu Rouge's Stella Polaris Remix)","1","1","272733","spotify:user:klevstul","2017-08-01T23:05:36Z"
"spotify:track:2SSHExBW3AY98yYcFDw3C4","Fire Of Peace","spotify:artist:16vevQ7HqK5kj2AZS15D1W","Lab's Cloud","spotify:album:1eMs3T6b1eas6aDQnYjjVx","Consciousness Change","1","1","585179","spotify:user:klevstul","2017-08-02T06:28:27Z"
"spotify:track:6GciUSq95vED6YjYezGvL6","V","spotify:artist:1OpHMC7Qo3lY1sVYaTUQrG","Axel Thesleff","spotify:album:5pBXkk1JYNQnqrYvKdi8JN","The Hollow Men","1","5","502578","spotify:user:klevstul","2017-08-02T06:50:27Z"
"spotify:track:2XT5YeZgJNR01EwAR9lZR4","Pulsar","spotify:artist:3QFXxlWMDSRABMc79TKS5U","Astronaut Ape","spotify:album:4nEBesQ9deOiZ0gBnCR7cs","Unknown Sector","1","5","510000","spotify:user:klevstul","2017-08-02T06:58:11Z"
"spotify:track:1XacWiKJ0j52snbvDULaOl","Devotion - Suduaya Remix","spotify:artist:64nL3MP8zmuLqUq8DDaIKS, spotify:artist:126ulrTJ4FDeEJJSdbqdUv","Liquid Soul, Suduaya","spotify:album:3hWB518QMzzzNmBQILJlr1","Remixes EP","1","4","384444","spotify:user:klevstul","2017-08-02T07:12:25Z"
"spotify:track:3woHCu0QKrjnmmMm3MJ3xg","Spiders - Finnebassen Remix","spotify:artist:2TUtwEDqoXZOapCTgMrcvj, spotify:artist:3Ckt7DNBcLi93B2LGyKYzy","Gundelach, Finnebassen","spotify:album:4tXJRA1izFLPzWQuqv35CB","Spiders","1","2","498666","spotify:user:klevstul","2017-08-02T07:22:58Z"
"spotify:track:5vgLjjU3ifl7DQKD6nN3nQ","Code of Ten","spotify:artist:0okmfBroVgFuvvljnUbqPW","East Forest","spotify:album:6TmMmGVseWokw8pcVsWRfV","Orbits","1","1","197200","spotify:user:klevstul","2017-08-02T08:28:03Z"
"spotify:track:2vCDnUZgV23wTsG4L3AkC1","Ways of the Sun","spotify:artist:50AWbCtpX2Hk9qnocJ34gk, spotify:artist:24XGvTclseHwpiDiZUzrdQ","Frankey & Sandrino, Ia Öberg","spotify:album:64HPUfiO85PBiwwjkYnNg0","Ways of the Sun / Fornax","1","1","520107","spotify:user:klevstul","2017-08-02T08:31:20Z"
"spotify:track:3rkge8kur9i26zpByFKvBu","Syria - Original","spotify:artist:58wDbO29TUyzGTz7gZqOue","Unders","spotify:album:63QglWXaVZfTcFOKvgIi54","Syria","1","1","483000","spotify:user:klevstul","2017-08-02T08:38:59Z"
"spotify:track:4GhRWItcoyUAh5RmgQTHiV","Icarus (feat. CoMa)","spotify:artist:4FCGgZrVQtcbDFEap3OAb2","Synthetic Epiphany","spotify:album:52DGHWJZrmxK5wcpNe6h0Q","Icarus (feat. CoMa)","1","1","449253","spotify:user:klevstul","2017-08-02T08:52:18Z"
"spotify:track:1TaQQ5tDuIJImBUQL89hei","When the Rains Came Down","spotify:artist:3vqOpeu6Uuodw0HPqedCzG, spotify:artist:3BGy6V0F3NeUaHwRihsubL","Ghosts Of Paraguay, Plutonic","spotify:album:2RDFsT5MUbDPgzstvu1nId","Ember","1","5","280500","spotify:user:klevstul","2017-08-02T08:57:41Z"
"spotify:track:5GrDQcePKiSFMkG8bC8KOV","Sleep At the Swamp","spotify:artist:5mk9bZgK156hL9mS64Y749","Potlatch","spotify:album:3iik2VkjT6a5FB5ug71dCD","Terra Firma","1","4","427066","spotify:user:klevstul","2017-08-02T09:03:24Z"
"spotify:track:0j1rryE1gBGVee2029U2Rv","Open Probability (feat. Zinovia)","spotify:artist:3quGMGYEW6b0UEkO95GS0R, spotify:artist:6voOFZxijhllrY6I4Mu0OB","Poordream, Zinovia","spotify:album:6VJNYyKjtqY7VVgdRDfOdi","Ninetynine","1","6","225265","spotify:user:klevstul","2017-08-02T09:08:04Z"
"spotify:track:7m1vXtnPoRRis1d6eQ9nN5","Granite","spotify:artist:7CgeS68e7HyUPVPbge7Ovy","Martin Nonstatic","spotify:album:1KPmm3sMHpACpF9nKpIxaD","Granite","1","2","391164","spotify:user:klevstul","2017-08-02T09:15:21Z"
"spotify:track:4pXr40R2u8AkccNw1JQD6n","Useless - The Kruder + Dorfmeister Session","spotify:artist:762310PdDnwsDxAQxzQkfX, spotify:artist:39ywlwtGw8RTGobakgb11L","Depeche Mode, Kruder & Dorfmeister","spotify:album:5Y0b7Wi56263sCvw4RteCp","Remixes 81>04","1","5","547573","spotify:user:klevstul","2017-08-02T09:42:00Z"
"spotify:track:0t7Q4oeXEjxYOEMy34ufCj","Valldemossa - Parov Stelar & Raul Irie Remix","spotify:artist:7kVSO9W0cZoyKBEG5o3E9h, spotify:artist:5rMgBsf8Uemm3q7ReOLx2U","Richard Dorfmeister, Madrid De Los Austrias","spotify:album:2h0ngKIfCY5CgxY4uRXlIZ","Valldemossa Remixed","1","3","331053","spotify:user:klevstul","2017-08-02T09:42:37Z"
"spotify:track:14iK9BxJzAP7TOMBumnJml","Schwindelig - Ian O'Donovan Remix","spotify:artist:1oXiuCd5F0DcnmXH5KaM6N, spotify:artist:5BraPrNeTewePAq6ApkgeC","Kollektiv Turmstrasse, Ian O'Donovan","spotify:album:0HSTcQ2LF1COmR8pDW69ua","Rebellion der Träumer - Remix Collection","1","6","573055","spotify:user:klevstul","2017-08-02T09:43:07Z"
"spotify:track:27F0drxthAi22kadOsfGjl","Uneins - Of Norway Version","spotify:artist:1oXiuCd5F0DcnmXH5KaM6N, spotify:artist:4USOu1WzfdbX4Ka0KY6vfz","Kollektiv Turmstrasse, Of Norway","spotify:album:7rGkPtJyMtJsApzsEXiU80","Rebellion der Träumer - Remixes Part 2","1","1","493623","spotify:user:klevstul","2017-08-02T09:43:32Z"
"spotify:track:2QusLzuGoX0KfjSmp1gZMo","The Last Stand - Claes Rosen Remix","spotify:artist:3WhvgoOwfFRjuHf7zgCptu, spotify:artist:0DJbbindURDhi6N4cRf48d","Koda, Claes Rosen","spotify:album:54cUYzd8rYD0QIgzSACyn8","The Last Stand","1","2","331218","spotify:user:klevstul","2017-08-02T09:45:34Z"
"spotify:track:6lQelux7a6TmfVUU2RugE1","Moon Station Traffic","spotify:artist:3QFXxlWMDSRABMc79TKS5U","Astronaut Ape","spotify:album:4nEBesQ9deOiZ0gBnCR7cs","Unknown Sector","1","3","501160","spotify:user:klevstul","2017-08-06T08:41:06Z"
"spotify:track:5eeop5sAkiwIKqWl8b3UHv","If You Only Knew - Original Mix","spotify:artist:3Ckt7DNBcLi93B2LGyKYzy","Finnebassen","spotify:album:1TJxI4LxvTuElJ2j7dTGa7","Electronique Miami WMC Sampler 2012","1","4","382000","spotify:user:klevstul","2017-08-06T12:25:20Z"
"spotify:track:0ndi62mFCxJJeuF48PQKuK","Aldebaran (Original)","spotify:artist:6rdTxNwQhUJTodUx7voWXO, spotify:artist:4qxDuHrnTYQkihZiJYLWdy","Hraach, Armen Miran","spotify:album:0UnV6c53NxZrUFK7ivfHjZ","Magic Deep 03","1","5","351866","spotify:user:klevstul","2017-08-14T15:02:27Z"
