"Track URI","Track Name","Artist URI","Artist Name","Album URI","Album Name","Disc Number","Track Number","Track Duration (ms)","Added By","Added At"
"spotify:track:5hlFW1Eer3qcjbgf6nMFDb","Bach, CPE: Flute Concerto in A Minor, Wq 166, H. 430: I. Allegro assai","spotify:artist:3meioy7GWDwpwmjv2LPyAb, spotify:artist:6duaKoFWgzQNgHlfmn3dHq, spotify:artist:25mbgceDJKxXGP8c5FmC83, spotify:artist:3lZKxSznittWxsDHsvvpBE","Carl Philipp Emanuel Bach, Emmanuel Pahud, Trevor Pinnock, Kammerakadamie Potsdam","spotify:album:3bNl5vaNx1rSflmFqeMpic","Bach, C.P.E.: Flute Concertos","1","1","497132","spotify:user:klevstul","2016-12-07T13:51:30Z"
"spotify:track:1ahgL3v7nY95L4M7cpsq4N","Comptine d'un autre été, l'après-midi","spotify:artist:00sazWvoTLOqg5MFwC68Um","Yann Tiersen","spotify:album:6BpM86nsNY2MdlAa33Msq9","Die fabelhafte Welt der Amelie (Das Original-Hörspiel zum Film)","1","4","140733","spotify:user:klevstul","2017-07-17T21:11:02Z"
"spotify:track:7B6ZK1XnaLeCKwlS1TUAMA","Jazz Suite No.2: 6. Waltz II","spotify:artist:6s1pCNXcbdtQJlsnM1hRIA, spotify:artist:2HqNckz4bPVT37fWkhugTZ, spotify:artist:4Kjr1MPMUfuH3QKXtAljNy","Dmitri Shostakovich, Concertgebouworkest, Riccardo Chailly","spotify:album:2EqstXogPyAqKnQV2Imr04","Shostakovich: The Jazz Album","1","13","225760","spotify:user:klevstul","2017-07-17T21:13:11Z"
"spotify:track:4QaXPrrVbfVNREVCddSIt6","Valzer Opera 64 No. 2","spotify:artist:3zqaF7eOletcgoVUo34cQ8","I Pulcini Musicali\, Le Dolci Note & Le Note Colorate","spotify:album:28sH0OiWmlycP7isMAoELa","Dolce Natale","1","10","203653","spotify:user:klevstul","2017-07-17T21:29:35Z"
"spotify:track:4U4V13gtYwnbhGTJVbVQei","Delibes: Lakmé, Act 1: ""Dôme épais, le jasmin"" (Lakmé, Mallika)","spotify:artist:1M9AXZkNPdOd1IPEsQsXnT, spotify:artist:2YyqOxLES4ir823NmpN2xw, spotify:artist:0JqybxAYuqXAWiGtMDIB80, spotify:artist:5oWBamVqyiEBlDPKfT8TMg, spotify:artist:1si28H9i9TTcRuxJsCxw9s, spotify:artist:04cR1nGtFodGYVWNoJFIMh","Léo Delibes, Mady Mesple, Danielle Millet, Orchestre du Theatre National de IOpera-Comique, Alain Lombard, Orchestre du Théâtre national de l'Opéra-Comique","spotify:album:2vIWXTDPRG25XX4XNpKWKj","Classic Experience II","1","3","210613","spotify:user:klevstul","2017-07-17T21:29:48Z"
"spotify:track:69RoAhDqFOiQb2pQvb24Ii","Requiem: Lacrimosa","spotify:artist:4NJhFmfw43RLBLjQvxDuRS, spotify:artist:0f3PsS9IQ6whvNMFFKnpjl, spotify:artist:0ugRf6ECGBFRCHlv9iG1No","Wolfgang Amadeus Mozart, Choir of King's College\, Cambridge, Stephen Cleobury","spotify:album:373TnwiNUfLYufOpCmi525","Mozart: Requiem Realisations","1","8","169666","spotify:user:klevstul","2017-09-24T09:23:44Z"
